Sensor ERCK-0505-360
Angle(deg) 360
freq(Hz) 100
time(s) 100
3930
3931
3931
3931
3932
3931
3929
3933
3931
3930
3932
3930
3931
3931
3932
3933
3925
3932
3932
3932
3930
3930
3931
3932
3931
3933
3932
3931
3933
3930
3930
3932
3931
3931
3931
3932
3931
3930
3928
3930
3930
3933
3932
3930
3931
3930
3932
3932
3930
3931
3933
3932
3931
3930
3931
3931
3933
3930
3932
3932
3932
3931
3935
3931
3932
3931
3929
3931
3932
3932
3931
3930
3932
3932
3929
3931
3929
3932
3931
3930
3932
3930
3931
3933
3933
3931
3931
3930
3932
3932
3929
3932
3931
3932
3932
3930
3931
3930
3931
3932
3930
3930
3931
3931
3931
3931
3931
3931
3925
3929
3935
3930
3929
3932
3926
3930
3932
3932
3931
3931
3931
3933
3931
3930
3932
3930
3930
3932
3932
3930
3932
3931
3932
3934
3930
3931
3930
3931
3933
3930
3930
3933
3933
3931
3931
3933
3932
3929
3931
3932
3933
3931
3930
3931
3932
3931
3932
3936
3931
3934
3930
3934
3934
3929
3931
3932
3930
3932
3933
3933
3931
3931
3930
3931
3930
3934
3931
3932
3931
3929
3932
3933
3933
3932
3931
3932
3932
3932
3929
3932
3931
3931
3931
3932
3930
3932
3932
3930
3931
3933
3932
3932
3930
3930
3932
3931
3931
3931
3931
3932
3931
3933
3931
3932
3931
3929
3931
3930
3930
3931
3932
3930
3932
3931
3932
3931
3932
3931
3931
3931
3931
3930
3930
3933
3931
3930
3933
3931
3932
3932
3929
3931
3933
3931
3930
3930
3932
3929
3931
3932
3933
3933
3931
3933
3931
3937
3931
3929
3932
3932
3932
3934
3933
3930
3930
3932
3929
3931
3930
3932
3932
3930
3931
3932
3931
3930
3933
3930
3930
3932
3931
3931
3932
3929
3933
3932
3933
3932
3930
3934
3933
3932
3931
3931
3933
3932
3933
3932
3930
3931
3930
3932
3931
3933
3931
3933
3930
3934
3933
3936
3928
3933
3931
3931
3931
3932
3932
3932
3930
3931
3933
3931
3931
3931
3933
3931
3931
3931
3931
3931
3931
3931
3930
3932
3930
3931
3932
3933
3932
3931
3932
3931
3934
3931
3932
3931
3934
3932
3933
3931
3934
3931
3930
3931
3932
3932
3934
3932
3930
3930
3932
3933
3932
3931
3932
3930
3931
3932
3932
3931
3930
3932
3929
3930
3932
3931
3932
3930
3932
3933
3934
3933
3933
3932
3930
3932
3931
3931
3931
3933
3931
3934
3932
3930
3932
3934
3933
3931
3931
3932
3932
3933
3931
3931
3932
3931
3934
3931
3931
3933
3932
3932
3932
3932
3932
3931
3932
3932
3932
3931
3931
3931
3931
3932
3933
3932
3931
3930
3931
3930
3932
3932
3931
3931
3932
3930
3933
3931
3929
3932
3929
3931
3931
3933
3932
3931
3933
3929
3931
3930
3935
3930
3930
3932
3932
3932
3929
3932
3931
3932
3931
3933
3931
3932
3932
3931
3933
3931
3933
3931
3933
3934
3932
3931
3933
3932
3933
3931
3931
3931
3931
3932
3933
3930
3932
3933
3933
3932
3931
3931
3932
3932
3932
3931
3932
3932
3931
3931
3931
3933
3932
3933
3934
3931
3929
3931
3928
3931
3930
3930
3931
3933
3930
3932
3932
3931
3932
3932
3933
3933
3931
3931
3931
3933
3932
3933
3932
3931
3934
3933
3932
3930
3929
3929
3932
3930
3931
3931
3932
3932
3931
3932
3933
3932
3931
3929
3932
3931
3932
3933
3932
3932
3927
3931
3933
3932
3931
3933
3932
3932
3930
3931
3933
3934
3933
3930
3932
3933
3932
3931
3930
3932
3931
3930
3931
3934
3931
3931
3934
3931
3932
3931
3930
3932
3932
3933
3932
3931
3933
3933
3932
3934
3932
3934
3931
3930
3932
3933
3935
3932
3929
3927
3933
3935
3930
3933
3934
3933
3932
3931
3931
3932
3934
3932
3930
3930
3932
3930
3931
3931
3932
3932
3930
3933
3932
3933
3931
3930
3931
3932
3931
3930
3931
3931
3931
3932
3933
3933
3931
3933
3933
3932
3931
3931
3933
3932
3932
3931
3936
3933
3932
3931
3931
3930
3930
3932
3930
3930
3933
3931
3933
3932
3931
3932
3931
3933
3932
3931
3930
3932
3931
3932
3932
3931
3933
3931
3932
3932
3931
3933
3934
3932
3931
3931
3932
3931
3930
3932
3932
3932
3933
3931
3931
3932
3933
3932
3931
3934
3933
3931
3929
3932
3930
3931
3931
3931
3932
3932
3933
3933
3931
3930
3933
3931
3933
3931
3930
3932
3931
3932
3930
3933
3931
3932
3931
3928
3932
3932
3932
3932
3933
3931
3932
3932
3929
3931
3931
3931
3929
3932
3930
3932
3932
3929
3930
3932
3932
3933
3930
3933
3929
3931
3932
3931
3932
3931
3932
3932
3932
3931
3930
3931
3935
3932
3932
3931
3932
3931
3929
3930
3932
3934
3930
3933
3931
3932
3931
3929
3931
3932
3932
3931
3932
3934
3934
3931
3933
3931
3935
3931
3929
3933
3933
3932
3933
3935
3932
3933
3929
3933
3931
3934
3932
3931
3932
3933
3932
3929
3930
3932
3932
3933
3931
3929
3932
3931
3933
3932
3932
3934
3932
3933
3935
3930
3933
3930
3931
3931
3930
3932
3931
3933
3932
3931
3934
3932
3931
3931
3929
3932
3931
3933
3931
3929
3931
3928
3932
3932
3931
3933
3932
3932
3932
3931
3931
3929
3931
3930
3932
3930
3932
3931
3931
3932
3932
3930
3934
3931
3931
3930
3933
3931
3929
3933
3931
3931
3932
3930
3932
3932
3928
3932
3930
3932
3931
3932
3932
3931
3933
3932
3929
3931
3929
3932
3931
3930
3931
3931
3933
3930
3932
3931
3930
3933
3931
3933
3932
3930
3933
3933
3933
3933
3932
3932
3932
3931
3932
3931
3934
3932
3931
3930
3932
3929
3931
3932
3933
3934
3931
3931
3932
3932
3933
3931
3932
3932
3931
3932
3932
3931
3933
3935
3932
3932
3931
3933
3930
3934
3932
3933
3931
3929
3932
3933
3933
3931
3931
3933
3931
3930
3932
3932
3934
3930
3930
3930
3933
3932
3931
3933
3930
3930
3932
3931
3932
3931
3931
3932
3930
3931
3932
3928
3932
3932
3930
3933
3931
3935
3931
3928
3932
3933
3930
3933
3933
3933
3931
3930
3932
3933
3932
3931
3931
3932
3932
3934
3931
3931
3932
3932
3931
3931
3930
3931
3932
3929
3931
3933
3934
3933
3932
3931
3931
3932
3933
3933
3933
3932
3932
3931
3930
3931
3930
3934
3932
3933
3931
3931
3926
3931
3931
3932
3931
3931
3931
3931
3932
3930
3932
3932
3931
3932
3932
3933
3933
3930
3933
3932
3932
3932
3931
3933
3932
3929
3930
3931
3932
3931
3930
3932
3933
3931
3932
3931
3933
3932
3932
3931
3934
3930
3933
3933
3930
3931
3930
3929
3934
3935
3932
3935
3930
3929
3931
3932
3931
3933
3933
3932
3932
3932
3930
3931
3932
3932
3931
3932
3933
3933
3932
3930
3931
3931
3931
3931
3931
3931
3930
3932
3932
3933
3931
3930
3931
3930
3932
3931
3932
3931
3930
3932
3934
3932
3933
3928
3932
3929
3932
3932
3932
3932
3930
3931
3935
3932
3932
3931
3933
3933
3932
3931
3932
3931
3933
3933
3932
3933
3931
3933
3932
3931
3932
3933
3932
3931
3930
3933
3931
3931
3931
3933
3932
3931
3932
3933
3929
3931
3930
3931
3931
3929
3932
3932
3931
3931
3932
3929
3931
3933
3933
3931
3930
3931
3931
3930
3931
3930
3931
3929
3932
3931
3932
3932
3930
3933
3931
3930
3931
3930
3932
3930
3930
3932
3932
3933
3931
3930
3931
3930
3930
3933
3931
3934
3931
3931
3933
3931
3930
3932
3930
3931
3931
3930
3930
3932
3932
3933
3929
3931
3934
3934
3933
3932
3931
3930
3930
3930
3932
3933
3932
3931
3931
3930
3930
3931
3932
3931
3932
3931
3929
3932
3932
3932
3932
3932
3930
3931
3932
3930
3932
3931
3931
3932
3931
3933
3933
3932
3933
3933
3931
3929
3930
3931
3935
3932
3934
3931
3930
3932
3933
3931
3932
3933
3933
3932
3931
3934
3936
3931
3932
3932
3932
3932
3931
3932
3933
3931
3932
3931
3932
3930
3930
3931
3931
3932
3931
3931
3934
3933
3932
3931
3933
3932
3931
3930
3933
3932
3931
3931
3932
3931
3934
3933
3930
3930
3933
3931
3931
3933
3934
3932
3931
3931
3931
3930
3929
3932
3931
3931
3931
3932
3931
3931
3930
3930
3932
3931
3931
3932
3931
3930
3933
3932
3931
3931
3933
3932
3932
3932
3930
3930
3933
3932
3930
3934
3933
3932
3930
3930
3931
3933
3928
3930
3935
3931
3932
3931
3933
3934
3931
3933
3932
3932
3932
3931
3931
3932
3931
3929
3933
3931
3929
3931
3931
3932
3930
3933
3931
3931
3931
3932
3931
3933
3930
3931
3931
3933
3933
3930
3932
3932
3931
3931
3932
3931
3929
3933
3935
3926
3930
3930
3927
3934
3931
3931
3931
3931
3931
3931
3934
3932
3932
3931
3931
3931
3930
3932
3932
3932
3932
3930
3929
3932
3930
3933
3932
3933
3931
3930
3933
3933
3931
3931
3932
3930
3933
3932
3932
3931
3933
3932
3930
3933
3931
3929
3932
3933
3931
3932
3931
3931
3930
3931
3930
3931
3932
3933
3933
3931
3932
3931
3932
3932
3931
3934
3931
3932
3932
3930
3933
3930
3930
3933
3931
3932
3930
3929
3931
3932
3933
3931
3930
3932
3932
3932
3932
3931
3932
3931
3931
3929
3930
3931
3929
3932
3929
3929
3930
3930
3929
3933
3932
3932
3931
3932
3930
3935
3932
3929
3932
3930
3931
3932
3933
3931
3929
3932
3932
3932
3932
3931
3931
3933
3933
3930
3930
3932
3931
3932
3932
3932
3933
3932
3931
3934
3931
3930
3933
3931
3933
3932
3931
3933
3933
3932
3932
3930
3932
3935
3932
3932
3931
3931
3929
3932
3931
3933
3931
3931
3932
3931
3930
3932
3930
3933
3931
3930
3932
3931
3930
3931
3931
3932
3931
3931
3931
3931
3931
3932
3930
3929
3932
3933
3933
3932
3932
3931
3932
3931
3934
3932
3932
3933
3930
3934
3932
3932
3931
3933
3933
3932
3932
3931
3932
3931
3929
3930
3930
3931
3931
3930
3932
3932
3933
3931
3930
3933
3930
3930
3932
3930
3931
3930
3930
3932
3931
3931
3931
3931
3931
3930
3931
3931
3930
3931
3930
3931
3933
3932
3932
3931
3931
3932
3933
3930
3931
3929
3931
3930
3931
3931
3933
3933
3930
3931
3933
3932
3930
3931
3932
3932
3932
3929
3931
3932
3932
3932
3931
3930
3933
3931
3931
3931
3931
3934
3931
3931
3933
3932
3933
3932
3931
3933
3933
3931
3932
3932
3931
3931
3928
3931
3931
3933
3931
3930
3930
3930
3930
3925
3931
3931
3932
3932
3934
3931
3930
3931
3932
3931
3929
3931
3931
3932
3930
3932
3930
3930
3933
3930
3933
3932
3933
3931
3930
3932
3933
3933
3932
3931
3933
3934
3932
3932
3930
3932
3931
3931
3928
3931
3932
3931
3931
3931
3931
3934
3931
3933
3934
3934
3933
3932
3933
3931
3931
3932
3931
3930
3931
3931
3931
3932
3932
3930
3932
3931
3933
3932
3931
3934
3932
3932
3930
3932
3932
3932
3930
3933
3931
3933
3931
3931
3932
3932
3931
3934
3931
3933
3932
3930
3932
3929
3930
3931
3931
3931
3931
3931
3930
3931
3934
3932
3931
3931
3932
3933
3934
3931
3930
3930
3930
3930
3931
3933
3931
3931
3931
3933
3932
3931
3932
3934
3931
3932
3930
3931
3930
3930
3932
3931
3934
3933
3933
3932
3931
3929
3932
3931
3933
3929
3931
3932
3932
3932
3931
3930
3932
3933
3932
3932
3932
3931
3934
3932
3930
3931
3932
3930
3931
3931
3930
3932
3930
3933
3932
3932
3933
3930
3933
3931
3933
3933
3932
3933
3934
3931
3930
3932
3931
3930
3931
3932
3936
3932
3930
3932
3932
3932
3930
3931
3930
3933
3932
3930
3931
3932
3930
3932
3931
3934
3932
3932
3932
3933
3930
3929
3932
3929
3931
3929
3930
3931
3934
3931
3930
3932
3931
3932
3930
3930
3930
3934
3930
3934
3932
3931
3932
3931
3931
3932
3934
3933
3933
3932
3932
3929
3932
3931
3930
3930
3932
3930
3931
3929
3932
3929
3932
3930
3933
3931
3932
3930
3930
3932
3931
3932
3933
3932
3932
3931
3932
3931
3931
3932
3932
3932
3930
3931
3930
3932
3930
3931
3932
3932
3932
3933
3930
3931
3931
3931
3933
3927
3934
3935
3932
3931
3932
3930
3931
3930
3933
3930
3930
3932
3932
3931
3931
3931
3932
3932
3934
3932
3933
3934
3930
3932
3929
3932
3931
3931
3933
3930
3934
3931
3931
3933
3931
3931
3932
3931
3928
3933
3933
3930
3932
3933
3931
3929
3933
3932
3933
3933
3928
3932
3931
3930
3930
3930
3932
3931
3929
3931
3930
3932
3930
3933
3933
3931
3932
3932
3931
3932
3932
3931
3931
3934
3932
3932
3932
3931
3931
3930
3930
3930
3932
3930
3933
3932
3931
3931
3933
3932
3930
3932
3932
3931
3935
3931
3930
3933
3933
3928
3931
3931
3932
3931
3933
3931
3930
3931
3932
3935
3931
3931
3933
3931
3932
3932
3931
3931
3932
3930
3932
3933
3933
3932
3931
3933
3933
3932
3932
3932
3931
3930
3931
3932
3933
3932
3931
3933
3931
3933
3932
3931
3931
3930
3932
3932
3929
3931
3935
3931
3931
3931
3933
3931
3931
3931
3931
3931
3930
3933
3932
3933
3930
3930
3930
3930
3930
3932
3931
3932
3933
3932
3931
3930
3930
3931
3931
3934
3932
3931
3931
3931
3931
3931
3930
3932
3932
3934
3930
3931
3933
3933
3932
3929
3933
3931
3932
3929
3934
3932
3934
3931
3931
3931
3931
3931
3931
3930
3932
3931
3932
3930
3933
3930
3931
3933
3931
3932
3932
3930
3931
3932
3932
3932
3931
3929
3932
3930
3932
3933
3931
3931
3931
3931
3933
3933
3931
3933
3933
3933
3933
3932
3937
3933
3933
3935
3933
3932
3929
3931
3931
3931
3931
3932
3933
3934
3931
3932
3931
3931
3933
3930
3932
3930
3933
3932
3932
3933
3930
3929
3931
3929
3932
3933
3931
3933
3930
3932
3932
3933
3932
3931
3932
3930
3932
3931
3933
3932
3930
3931
3931
3933
3931
3931
3931
3933
3932
3931
3933
3931
3931
3932
3932
3932
3934
3932
3933
3933
3932
3931
3933
3930
3933
3931
3930
3932
3933
3931
3931
3933
3933
3933
3929
3930
3932
3932
3930
3932
3931
3933
3932
3930
3932
3932
3933
3933
3930
3931
3935
3932
3930
3930
3932
3930
3932
3930
3931
3931
3931
3930
3932
3931
3930
3932
3931
3931
3932
3933
3931
3930
3933
3931
3932
3931
3934
3931
3932
3932
3930
3934
3932
3933
3934
3934
3932
3932
3934
3931
3930
3931
3933
3931
3931
3934
3933
3930
3931
3929
3933
3931
3935
3930
3930
3931
3931
3932
3932
3932
3930
3932
3932
3932
3930
3932
3929
3931
3931
3930
3932
3932
3930
3931
3932
3933
3931
3931
3932
3931
3932
3930
3930
3932
3931
3930
3932
3932
3932
3931
3932
3932
3932
3931
3932
3932
3931
3931
3932
3932
3934
3930
3934
3931
3942
3929
3930
3931
3933
3932
3931
3933
3930
3931
3931
3931
3930
3934
3933
3931
3929
3930
3931
3932
3931
3933
3931
3934
3933
3930
3931
3931
3931
3932
3932
3933
3932
3931
3934
3931
3930
3932
3932
3930
3932
3930
3931
3933
3934
3934
3933
3934
3930
3933
3931
3931
3932
3931
3930
3932
3934
3933
3933
3933
3931
3933
3932
3933
3930
3933
3931
3931
3931
3931
3931
3932
3931
3932
3929
3930
3931
3932
3931
3930
3931
3930
3932
3930
3931
3931
3930
3931
3930
3934
3933
3929
3931
3933
3933
3931
3935
3932
3932
3931
3932
3931
3934
3930
3933
3931
3931
3931
3932
3931
3934
3931
3929
3931
3932
3931
3930
3931
3931
3930
3930
3934
3933
3931
3931
3930
3931
3933
3932
3930
3932
3931
3935
3930
3932
3931
3930
3932
3932
3931
3933
3932
3932
3932
3933
3932
3929
3931
3932
3931
3932
3933
3929
3930
3930
3931
3933
3934
3931
3931
3932
3930
3933
3931
3929
3929
3931
3931
3932
3931
3930
3930
3931
3932
3931
3933
3930
3930
3932
3930
3933
3932
3931
3931
3931
3931
3933
3930
3931
3932
3926
3931
3933
3932
3932
3930
3930
3932
3929
3930
3931
3932
3931
3933
3934
3933
3931
3930
3930
3930
3930
3930
3933
3931
3934
3931
3931
3933
3931
3933
3931
3931
3932
3933
3933
3931
3930
3933
3931
3932
3931
3931
3932
3930
3932
3931
3929
3933
3933
3931
3931
3934
3930
3932
3932
3930
3932
3932
3930
3931
3932
3932
3931
3932
3932
3932
3933
3932
3932
3931
3933
3932
3931
3932
3932
3933
3931
3931
3930
3932
3930
3932
3932
3930
3932
3932
3931
3931
3932
3930
3933
3932
3932
3931
3929
3932
3933
3933
3931
3931
3930
3927
3932
3932
3931
3931
3932
3932
3930
3933
3931
3932
3932
3930
3933
3932
3932
3931
3930
3931
3931
3931
3931
3932
3931
3932
3932
3932
3933
3931
3930
3930
3932
3932
3932
3931
3931
3931
3931
3931
3931
3931
3930
3931
3934
3933
3932
3930
3934
3932
3936
3930
3931
3931
3932
3932
3934
3931
3932
3931
3932
3931
3931
3933
3931
3933
3931
3930
3932
3931
3933
3930
3932
3932
3932
3932
3931
3931
3932
3934
3931
3933
3934
3930
3932
3929
3931
3931
3931
3930
3932
3930
3931
3935
3932
3932
3927
3932
3931
3933
3932
3930
3931
3930
3931
3929
3929
3932
3931
3933
3931
3931
3933
3931
3931
3932
3931
3932
3931
3930
3932
3931
3931
3931
3931
3929
3931
3930
3932
3932
3930
3932
3931
3933
3934
3931
3932
3930
3930
3931
3929
3933
3931
3933
3932
3925
3932
3931
3931
3931
3931
3930
3930
3932
3929
3932
3932
3933
3931
3930
3934
3934
3930
3932
3931
3932
3930
3930
3929
3931
3930
3931
3931
3929
3931
3931
3931
3930
3933
3934
3933
3930
3930
3931
3932
3931
3930
3932
3931
3931
3932
3932
3931
3934
3930
3931
3931
3933
3932
3930
3932
3930
3931
3930
3933
3932
3929
3933
3932
3934
3932
3930
3932
3932
3933
3931
3931
3933
3931
3931
3929
3930
3929
3932
3932
3929
3932
3932
3931
3931
3932
3930
3932
3932
3932
3930
3932
3930
3932
3936
3934
3931
3933
3934
3933
3931
3931
3932
3930
3933
3931
3930
3931
3934
3931
3931
3931
3930
3929
3932
3931
3933
3933
3932
3933
3933
3931
3933
3929
3932
3931
3932
3932
3930
3933
3932
3932
3931
3933
3932
3933
3931
3934
3932
3931
3932
3933
3935
3931
3929
3931
3931
3933
3922
3930
3933
3931
3930
3932
3932
3932
3930
3932
3932
3933
3932
3930
3932
3930
3931
3932
3930
3930
3931
3932
3931
3932
3932
3932
3932
3931
3932
3930
3933
3932
3933
3932
3930
3932
3932
3932
3932
3933
3929
3929
3931
3931
3933
3930
3931
3935
3931
3928
3931
3931
3931
3931
3931
3931
3932
3931
3932
3931
3931
3932
3932
3933
3933
3931
3931
3930
3931
3931
3931
3932
3929
3932
3932
3930
3933
3931
3931
3932
3931
3930
3931
3932
3931
3930
3930
3933
3931
3933
3930
3935
3931
3932
3931
3921
3931
3932
3933
3932
3932
3931
3932
3932
3933
3932
3933
3931
3931
3930
3930
3931
3932
3930
3931
3931
3930
3930
3932
3931
3931
3932
3932
3931
3931
3932
3930
3932
3933
3932
3930
3931
3934
3933
3932
3933
3932
3931
3931
3932
3928
3933
3928
3933
3932
3934
3931
3930
3933
3933
3932
3932
3931
3930
3931
3931
3929
3932
3931
3930
3931
3931
3932
3930
3934
3931
3929
3930
3931
3932
3930
3931
3930
3931
3932
3933
3930
3929
3932
3931
3931
3931
3932
3930
3934
3933
3931
3928
3931
3930
3932
3933
3934
3937
3932
3930
3931
3930
3930
3930
3933
3933
3933
3932
3932
3933
3930
3931
3931
3930
3933
3932
3931
3930
3931
3931
3933
3932
3930
3931
3930
3931
3931
3931
3930
3931
3930
3931
3931
3932
3932
3933
3931
3931
3931
3931
3932
3931
3933
3931
3930
3933
3935
3932
3930
3931
3930
3930
3931
3933
3932
3932
3931
3933
3932
3931
3933
3931
3933
3931
3932
3931
3934
3932
3931
3932
3933
3932
3931
3931
3931
3931
3932
3930
3933
3930
3931
3932
3930
3930
3931
3934
3931
3930
3930
3932
3932
3931
3933
3932
3930
3931
3930
3932
3932
3929
3931
3933
3932
3931
3932
3934
3932
3931
3933
3932
3932
3930
3930
3932
3931
3931
3930
3934
3931
3931
3933
3931
3932
3931
3931
3932
3930
3931
3932
3929
3932
3931
3930
3933
3929
3930
3930
3930
3932
3935
3933
3933
3929
3932
3933
3930
3930
3932
3932
3932
3930
3933
3933
3930
3931
3932
3933
3932
3931
3931
3930
3932
3931
3932
3930
3930
3932
3931
3933
3931
3931
3933
3931
3932
3931
3934
3931
3932
3930
3931
3933
3931
3933
3931
3930
3930
3931
3933
3933
3932
3935
3935
3930
3933
3930
3933
3932
3930
3930
3931
3931
3930
3929
3932
3931
3932
3931
3931
3932
3931
3930
3931
3930
3932
3929
3932
3931
3934
3931
3930
3933
3931
3933
3931
3930
3932
3934
3932
3932
3933
3933
3931
3931
3931
3930
3933
3933
3933
3931
3931
3932
3933
3930
3931
3933
3932
3931
3930
3933
3932
3931
3931
3931
3930
3930
3932
3930
3930
3934
3932
3931
3934
3932
3930
3929
3931
3930
3931
3931
3930
3931
3931
3931
3930
3933
3932
3932
3931
3932
3932
3931
3935
3932
3932
3932
3933
3928
3931
3930
3929
3932
3932
3933
3933
3931
3932
3932
3932
3933
3931
3933
3931
3929
3932
3931
3933
3932
3931
3932
3932
3931
3931
3931
3931
3932
3932
3932
3931
3931
3931
3930
3932
3932
3933
3933
3930
3932
3930
3931
3933
3932
3932
3931
3930
3934
3932
3933
3928
3932
3934
3933
3933
3931
3932
3931
3930
3931
3932
3932
3932
3930
3931
3933
3933
3931
3930
3931
3931
3931
3931
3931
3931
3931
3932
3930
3933
3931
3931
3930
3933
3931
3930
3931
3931
3932
3930
3930
3930
3932
3930
3936
3931
3930
3932
3930
3933
3933
3930
3932
3930
3932
3931
3931
3932
3931
3932
3931
3930
3933
3932
3931
3931
3929
3931
3932
3931
3932
3931
3930
3931
3933
3933
3931
3933
3932
3932
3931
3932
3930
3930
3931
3931
3931
3931
3931
3929
3931
3933
3931
3931
3935
3929
3929
3930
3931
3931
3934
3931
3931
3931
3933
3929
3932
3931
3931
3932
3930
3933
3931
3932
3933
3931
3931
3932
3930
3932
3931
3931
3932
3932
3930
3931
3930
3932
3933
3930
3932
3931
3933
3932
3931
3931
3931
3933
3931
3930
3932
3931
3933
3932
3935
3933
3932
3936
3929
3931
3932
3933
3931
3931
3932
3931
3932
3931
3932
3930
3930
3930
3932
3933
3931
3931
3932
3932
3932
3932
3931
3930
3933
3933
3933
3931
3931
3933
3931
3931
3931
3931
3931
3931
3930
3931
3932
3933
3932
3932
3933
3930
3933
3934
3930
3933
3929
3932
3931
3931
3932
3931
3934
3932
3930
3934
3931
3931
3931
3931
3931
3933
3933
3931
3933
3932
3932
3931
3931
3932
3933
3931
3932
3931
3933
3931
3929
3932
3932
3933
3930
3931
3935
3934
3932
3931
3931
3933
3932
3930
3932
3932
3931
3931
3931
3932
3932
3932
3931
3929
3933
3934
3933
3930
3932
3929
3931
3931
3931
3932
3930
3930
3930
3932
3932
3930
3932
3932
3934
3930
3930
3930
3933
3931
3931
3931
3932
3932
3930
3933
3933
3932
3931
3931
3930
3931
3931
3928
3933
3930
3931
3929
3929
3932
3930
3934
3931
3930
3931
3932
3931
3930
3931
3931
3930
3931
3931
3932
3930
3930
3931
3931
3930
3931
3932
3932
3931
3932
3933
3930
3933
3931
3933
3930
3931
3932
3929
3931
3931
3930
3931
3931
3930
3931
3931
3929
3932
3931
3933
3932
3929
3935
3933
3932
3931
3931
3931
3930
3932
3930
3932
3932
3930
3932
3931
3931
3934
3931
3931
3932
3932
3932
3930
3931
3934
3931
3931
3933
3931
3933
3931
3929
3931
3930
3933
3931
3931
3931
3933
3931
3933
3932
3932
3931
3933
3932
3930
3930
3930
3936
3932
3932
3931
3934
3932
3930
3932
3933
3931
3931
3931
3931
3934
3932
3931
3931
3931
3932
3932
3932
3931
3931
3931
3932
3931
3932
3931
3933
3932
3932
3932
3932
3931
3933
3932
3929
3932
3931
3931
3930
3930
3929
3934
3932
3931
3928
3930
3931
3930
3931
3933
3933
3931
3933
3931
3933
3932
3930
3933
3932
3933
3932
3930
3932
3932
3933
3930
3931
3933
3931
3931
3931
3932
3932
3932
3932
3929
3933
3930
3933
3931
3933
3932
3932
3930
3931
3932
3931
3932
3935
3933
3930
3932
3932
3933
3933
3931
3933
3930
3933
3932
3933
3930
3931
3932
3929
3933
3930
3931
3932
3930
3930
3932
3931
3930
3931
3931
3933
3930
3932
3931
3932
3930
3934
3932
3932
3932
3930
3931
3932
3932
3930
3932
3934
3930
3931
3930
3933
3930
3928
3930
3930
3934
3930
3933
3929
3932
3931
3930
3931
3933
3933
3932
3932
3930
3931
3932
3933
3932
3933
3931
3931
3930
3931
3930
3932
3931
3933
3939
3933
3931
3930
3930
3931
3932
3931
3930
3931
3930
3932
3931
3934
3931
3932
3931
3932
3931
3930
3933
3933
3935
3930
3929
3934
3928
3932
3934
3930
3933
3931
3930
3932
3932
3932
3932
3933
3931
3932
3931
3931
3931
3930
3929
3932
3932
3931
3931
3931
3932
3929
3931
3930
3932
3931
3933
3930
3930
3931
3932
3930
3930
3932
3931
3933
3931
3928
3932
3932
3933
3933
3929
3931
3932
3932
3930
3930
3933
3932
3930
3932
3931
3930
3930
3933
3932
3930
3933
3931
3931
3932
3931
3933
3931
3932
3932
3931
3934
3931
3931
3931
3931
3931
3930
3932
3931
3933
3931
3929
3932
3929
3931
3931
3931
3933
3931
3933
3931
3932
3932
3931
3933
3932
3935
3932
3932
3932
3932
3932
3930
3931
3931
3930
3933
3933
3932
3933
3932
3932
3933
3932
3932
3930
3930
3931
3931
3933
3931
3932
3932
3934
3934
3929
3931
3934
3932
3932
3933
3933
3933
3934
3932
3930
3930
3932
3932
3933
3931
3931
3932
3931
3932
3934
3931
3932
3930
3931
3931
3933
3932
3931
3931
3932
3930
3932
3931
3932
3931
3932
3932
3934
3931
3930
3935
3931
3932
3934
3933
3933
3933
3931
3931
3932
3932
3932
3931
3932
3932
3932
3933
3931
3934
3931
3930
3933
3933
3930
3932
3931
3933
3932
3933
3933
3931
3933
3932
3930
3933
3932
3931
3931
3932
3935
3930
3932
3933
3933
3933
3931
3931
3931
3932
3932
3930
3932
3934
3930
3931
3930
3932
3931
3931
3932
3932
3931
3933
3932
3932
3932
3933
3931
3933
3931
3932
3929
3932
3929
3932
3932
3932
3930
3932
3932
3933
3932
3930
3932
3932
3931
3932
3931
3931
3931
3931
3933
3931
3932
3932
3932
3931
3930
3932
3931
3932
3932
3932
3930
3932
3933
3934
3932
3931
3932
3933
3933
3932
3933
3932
3930
3932
3933
3934
3935
3933
3934
3934
3934
3933
3931
3932
3932
3933
3933
3933
3931
3931
3931
3930
3930
3931
3929
3932
3932
3932
3932
3933
3931
3932
3932
3930
3932
3931
3930
3931
3930
3931
3932
3932
3930
3930
3932
3931
3932
3932
3932
3931
3934
3933
3932
3932
3932
3933
3930
3932
3931
3937
3931
3932
3932
3931
3934
3931
3932
3931
3931
3932
3932
3932
3930
3932
3932
3930
3932
3931
3932
3932
3932
3929
3932
3932
3932
3932
3932
3933
3930
3931
3932
3932
3931
3933
3931
3931
3932
3932
3933
3933
3931
3932
3932
3936
3927
3932
3930
3932
3933
3930
3932
3930
3931
3931
3930
3932
3931
3933
3931
3932
3933
3931
3932
3931
3932
3931
3933
3931
3930
3933
3932
3932
3930
3932
3934
3934
3930
3932
3932
3931
3931
3931
3931
3933
3933
3931
3930
3933
3932
3931
3930
3928
3931
3933
3930
3930
3930
3932
3930
3932
3932
3931
3930
3931
3932
3932
3931
3931
3931
3933
3933
3931
3931
3930
3934
3930
3932
3931
3933
3932
3930
3931
3933
3933
3930
3930
3930
3933
3932
3931
3932
3931
3930
3930
3933
3933
3931
3936
3932
3934
3932
3931
3932
3932
3930
3933
3930
3934
3930
3932
3930
3930
3931
3931
3931
3931
3931
3932
3931
3932
3931
3931
3932
3932
3931
3933
3932
3932
3932
3931
3931
3930
3931
3930
3931
3929
3932
3932
3930
3931
3931
3930
3932
3931
3927
3932
3930
3932
3932
3932
3934
3931
3930
3932
3933
3932
3933
3932
3930
3933
3933
3933
3933
3932
3932
3932
3931
3931
3930
3930
3932
3929
3932
3932
3932
3932
3932
3931
3931
3931
3930
3931
3932
3930
3932
3932
3931
3933
3931
3932
3933
3930
3932
3931
3932
3935
3932
3929
3931
3932
3930
3930
3931
3931
3933
3930
3932
3933
3932
3930
3932
3932
3932
3932
3931
3934
3933
3931
3933
3931
3932
3931
3931
3931
3931
3931
3931
3931
3935
3931
3931
3932
3931
3932
3931
3930
3930
3932
3933
3932
3934
3931
3931
3932
3931
3936
3927
3932
3930
3930
3932
3931
3931
3932
3932
3933
3930
3933
3931
3933
3930
3931
3931
3932
3932
3932
3931
3933
3934
3930
3931
3929
3930
3932
3931
3931
3932
3932
3932
3930
3932
3933
3930
3931
3931
3929
3933
3933
3935
3932
3932
3933
3931
3932
3935
3932
3931
3930
3930
3931
3930
3932
3930
3933
3931
3932
3932
3930
3932
3931
3933
3931
3932
3930
3930
3930
3932
3930
3934
3932
3929
3931
3930
3932
3931
3933
3932
3930
3933
3933
3933
3932
3933
3931
3929
3931
3933
3932
3936
3932
3932
3930
3931
3936
3932
3932
3929
3931
3930
3934
3932
3932
3933
3930
3933
3932
3932
3932
3932
3931
3933
3931
3933
3930
3934
3933
3931
3933
3932
3931
3930
3930
3930
3932
3931
3932
3931
3932
3932
3931
3932
3931
3933
3932
3931
3933
3932
3932
3930
3935
3935
3931
3933
3934
3929
3931
3931
3932
3932
3931
3933
3932
3930
3931
3930
3931
3932
3932
3932
3932
3931
3929
3931
3934
3932
3930
3931
3932
3931
3931
3931
3932
3931
3931
3932
3931
3933
3930
3930
3933
3932
3932
3932
3931
3932
3932
3932
3934
3932
3930
3933
3931
3932
3932
3930
3933
3933
3933
3933
3934
3931
3933
3932
3932
3933
3931
3930
3931
3931
3932
3931
3933
3930
3931
3930
3932
3930
3929
3932
3932
3931
3931
3933
3934
3932
3931
3933
3932
3932
3929
3930
3932
3933
3931
3930
3930
3931
3929
3936
3932
3934
3930
3932
3932
3930
3931
3930
3933
3932
3932
3931
3931
3930
3933
3930
3933
3933
3931
3933
3932
3932
3932
3931
3931
3932
3931
3931
3933
3931
3929
3933
3932
3932
3930
3933
3932
3930
3933
3930
3932
3931
3933
3930
3930
3932
3928
3934
3932
3932
3931
3932
3935
3932
3931
3933
3932
3933
3932
3930
3932
3932
3933
3931
3932
3934
3933
3931
3930
3931
3931
3933
3931
3932
3930
3930
3933
3930
3932
3932
3932
3933
3930
3932
3931
3931
3931
3932
3931
3935
3932
3928
3931
3930
3932
3934
3933
3930
3930
3931
3932
3931
3931
3931
3932
3930
3930
3931
3933
3932
3931
3931
3932
3933
3930
3932
3933
3933
3932
3932
3930
3931
3932
3930
3931
3930
3931
3932
3932
3930
3931
3934
3931
3931
3932
3931
3929
3931
3932
3932
3931
3933
3932
3929
3929
3933
3931
3933
3932
3932
3931
3930
3931
3929
3932
3932
3930
3931
3931
3929
3932
3932
3929
3931
3932
3933
3932
3930
3932
3931
3933
3932
3932
3933
3931
3930
3931
3932
3932
3931
3934
3932
3930
3932
3931
3932
3933
3932
3932
3933
3933
3933
3930
3930
3932
3931
3931
3932
3933
3930
3931
3932
3932
3931
3933
3931
3931
3932
3931
3931
3932
3932
3930
3930
3931
3930
3932
3933
3932
3932
3932
3931
3933
3930
3933
3931
3932
3932
3932
3931
3932
3933
3931
3932
3934
3933
3933
3932
3933
3931
3930
3932
3930
3933
3931
3931
3931
3931
3931
3933
3932
3930
3933
3934
3931
3931
3933
3930
3931
3931
3931
3933
3932
3931
3934
3931
3929
3931
3932
3931
3930
3931
3931
3930
3933
3931
3934
3932
3932
3932
3932
3931
3933
3930
3932
3932
3931
3933
3931
3927
3935
3932
3931
3932
3932
3933
3930
3932
3933
3934
3932
3933
3931
3929
3931
3930
3932
3933
3932
3931
3930
3933
3932
3931
3931
3931
3930
3934
3933
3933
3931
3933
3932
3931
3933
3932
3932
3932
3932
3931
3932
3930
3932
3931
3937
3932
3929
3933
3931
3934
3931
3932
3932
3930
3931
3931
3930
3931
3933
3931
3931
3931
3933
3932
3931
3933
3931
3931
3932
3931
3932
3931
3930
3932
3931
3932
3931
3933
3931
3932
3931
3931
3930
3931
3931
3932
3932
3932
3930
3931
3931
3933
3933
3932
3933
3933
3930
3932
3931
3932
3932
3930
3931
3931
3931
3931
3932
3930
3931
3931
3932
3931
3930
3934
3934
3931
3933
3931
3932
3931
3930
3932
3931
3932
3932
3932
3930
3932
3932
3930
3932
3932
3931
3933
3932
3932
3932
3932
3931
3930
3932
3930
3932
3930
3932
3930
3932
3931
3932
3930
3927
3932
3932
3929
3932
3930
3933
3931
3931
3931
3932
3930
3933
3931
3933
3934
3929
3932
3931
3932
3931
3931
3932
3933
3933
3932
3931
3933
3933
3928
3931
3929
3933
3931
3931
3932
3932
3931
3933
3932
3933
3932
3931
3930
3930
3932
3933
3932
3932
3931
3931
3932
3932
3931
3933
3933
3932
3931
3930
3930
3931
3932
3931
3930
3931
3930
3932
3932
3931
3930
3931
3933
3931
3930
3930
3931
3932
3931
3933
3931
3930
3931
3932
3932
3931
3932
3931
3929
3932
3933
3933
3931
3929
3934
3932
3930
3933
3931
3931
3933
3931
3935
3930
3931
3932
3931
3930
3932
3932
3931
3930
3930
3931
3932
3931
3931
3934
3931
3933
3930
3929
3932
3929
3932
3931
3930
3932
3930
3930
3931
3933
3932
3931
3932
3930
3933
3930
3932
3930
3931
3934
3935
3933
3931
3930
3931
3933
3932
3932
3930
3930
3932
3931
3933
3933
3933
3933
3931
3932
3933
3930
3932
3932
3930
3932
3931
3933
3930
3932
3932
3930
3933
3931
3930
3934
3930
3931
3931
3931
3930
3932
3932
3933
3931
3931
3930
3930
3928
3931
3928
3930
3930
3931
3932
3930
3934
3932
3929
3932
3930
3933
3932
3932
3931
3931
3932
3932
3930
3930
3932
3931
3931
3932
3931
3931
3932
3932
3930
3932
3933
3933
3932
3932
3931
3931
3933
3929
3932
3933
3930
3931
3933
3931
3929
3928
3932
3933
3938
3934
3932
3929
3930
3931
3932
3931
3931
3933
3932
3933
3934
3931
3931
3932
3931
3933
3932
3932
3931
3932
3932
3930
3933
3933
3931
3932
3930
3932
3932
3930
3932
3932
3930
3932
3932
3930
3931
3933
3933
3931
3930
3933
3933
3934
3931
3931
3932
3929
3931
3931
3929
3931
3932
3931
3932
3931
3930
3932
3932
3932
3931
3932
3930
3931
3931
3933
3931
3933
3931
3931
3931
3933
3930
3931
3932
3933
3933
3931
3931
3933
3932
3930
3931
3931
3932
3931
3934
3930
3929
3930
3933
3932
3927
3932
3928
3932
3931
3932
3934
3930
3932
3931
3932
3931
3933
3932
3932
3932
3932
3930
3934
3933
3931
3933
3931
3932
3932
3930
3932
3931
3930
3929
3930
3932
3930
3932
3932
3931
3933
3931
3933
3931
3932
3932
3931
3932
3931
3932
3932
3930
3943
3933
3934
3931
3931
3931
3930
3932
3931
3932
3932
3933
3931
3931
3932
3932
3931
3932
3932
3930
3933
3932
3932
3931
3931
3929
3932
3931
3932
3932
3930
3930
3932
3930
3932
3932
3932
3933
3931
3931
3931
3932
3929
3931
3931
3930
3931
3931
3931
3929
3932
3929
3931
3933
3935
3932
3931
3932
3933
3932
3931
3932
3932
3931
3931
3933
3931
3932
3932
3930
3934
3932
3930
3930
3933
3931
3933
3929
3931
3931
3931
3930
3931
3930
3931
3932
3930
3931
3930
3931
3931
3930
3932
3932
3929
3931
3929
3928
3930
3932
3929
3931
3931
3930
3932
3932
3931
3930
3932
3932
3931
3933
3931
3931
3932
3933
3932
3933
3930
3931
3930
3932
3931
3931
3933
3932
3934
3931
3930
3933
3933
3932
3931
3929
3932
3932
3931
3932
3932
3929
3932
3931
3930
3934
3933
3931
3930
3932
3939
3930
3930
3931
3932
3931
3933
3931
3930
3930
3930
3931
3933
3931
3930
3932
3930
3930
3931
3932
3931
3931
3931
3931
3932
3930
3933
3933
3932
3931
3933
3932
3930
3933
3931
3931
3930
3931
3933
3932
3930
3931
3932
3932
3932
3928
3933
3932
3930
3930
3930
3931
3932
3932
3930
3931
3933
3931
3930
3932
3932
3931
3932
3929
3932
3933
3931
3931
3931
3932
3932
3932
3929
3931
3932
3932
3932
3932
3930
3931
3932
3933
3933
3933
3933
3932
3932
3933
3932
3930
3932
3932
3926
3933
3932
3932
3932
3932
3931
3930
3931
3932
3931
3931
3933
3930
3931
3932
3933
3932
3931
3929
3932
3932
3933
3931
3929
3931
3932
3933
3931
3932
3930
3930
3932
3931
3929
3932
3932
3931
3934
3933
3931
3929
3931
3931
3933
3931
3931
3931
3931
3931
3934
3932
3935
3935
3929
3930
3933
3931
3932
3933
3931
3930
3931
3931
3932
3931
3933
3933
3931
3931
3931
3932
3930
3930
3931
3932
3931
3932
3931
3930
3932
3932
3932
3932
3933
3931
3932
3931
3933
3932
3932
3932
3931
3931
3932
3931
3929
3933
3931
3933
3931
3932
3931
3933
3933
3933
3931
3930
3933
3931
3931
3931
3933
3931
3931
3930
3934
3932
3931
3930
3931
3930
3930
3932
3930
3931
3931
3930
3932
3931
3932
3932
3932
3934
3933
3931
3932
3932
3931
3931
3931
3931
3933
3932
3932
3932
3932
3932
3932
3930
3933
3933
3933
3932
3932
3931
3932
3930
3932
3933
3933
3930
3931
3934
3932
3931
3932
3931
3933
3932
3931
3933
3934
3933
3932
3931
3932
3934
3933
3932
3930
3934
3933
3932
3932
3932
3931
3931
3932
3932
3933
3932
3931
3930
3933
3928
3933
3931
3932
3932
3931
3933
3934
3931
3932
3930
3933
3931
3932
3931
3931
3933
3931
3933
3931
3931
3932
3933
3932
3931
3933
3931
3932
3933
3932
3932
3930
3932
3933
3934
3934
3933
3932
3933
3932
3931
3933
3932
3933
3931
3932
3933
3930
3932
3932
3929
3931
3930
3936
3931
3933
3932
3931
3933
3930
3932
3931
3932
3931
3933
3931
3931
3931
3932
3929
3930
3932
3933
3933
3931
3931
3933
3932
3930
3931
3932
3933
3930
3930
3932
3930
3932
3930
3932
3933
3932
3931
3931
3931
3933
3932
3934
3933
3930
3935
3929
3931
3931
3930
3931
3931
3931
3933
3931
3935
3932
3931
3930
3934
3933
3930
3931
3932
3933
3932
3932
3934
3931
3934
3934
3931
3932
3931
3933
3931
3932
3932
3932
3933
3932
3931
3933
3931
3933
3931
3932
3931
3932
3931
3931
3929
3929
3929
3930
3929
3932
3933
3932
3932
3932
3930
3931
3933
3932
3933
3931
3931
3931
3933
3931
3931
3930
3931
3932
3930
3931
3931
3931
3933
3931
3931
3931
3932
3931
3933
3931
3933
3932
3930
3934
3934
3933
3932
3932
3931
3933
3932
3935
3931
3933
3931
3931
3931
3928
3932
3933
3931
3931
3932
3931
3933
3932
3931
3930
3931
3931
3931
3932
3931
3933
3931
3932
3930
3933
3930
3933
3931
3931
3930
3930
3931
3934
3933
3931
3932
3930
3932
3931
3933
3931
3930
3932
3933
3931
3931
3930
3932
3934
3932
3928
3932
3932
3932
3930
3931
3933
3933
3931
3931
3929
3931
3932
3933
3932
3933
3931
3931
3931
3933
3930
3932
3931
3933
3933
3932
3931
3931
3930
3931
3932
3932
3931
3931
3930
3931
3931
3933
3931
3930
3932
3931
3930
3932
3927
3932
3932
3933
3930
3931
3930
3930
3933
3931
3933
3932
3932
3931
3931
3931
3931
3935
3931
3929
3931
3932
3933
3932
3931
3930
3932
3931
3930
3931
3930
3934
3934
3930
3933
3932
3931
3930
3929
3931
3932
3934
3930
3931
3934
3931
3933
3934
3928
3933
3933
3932
3932
3930
3932
3931
3932
3933
3931
3931
3931
3931
3932
3932
3931
3932
3931
3932
3932
3930
3933
3930
3931
3932
3930
3932
3931
3930
3931
3932
3933
3931
3930
3932
3932
3931
3931
3931
3930
3932
3933
3933
3930
3931
3934
3931
3931
3932
3932
3931
3933
3934
3930
3931
3931
3931
3932
3930
3932
3932
3933
3932
3930
3932
3931
3931
3932
3930
3933
3931
3931
3933
3932
3932
3932
3931
3930
3931
3930
3931
3932
3934
3933
3930
3934
3931
3932
3931
3932
3931
3933
3932
3930
3933
3931
3931
3929
3931
3934
3929
3930
3934
3932
3932
3932
3930
3931
3931
3931
3931
3930
3932
3933
3932
3931
3931
3933
3931
3931
3932
3933
3932
3932
3933
3932
3932
3931
3932
3931
3933
3932
3931
3933
3931
3933
3931
3930
3933
3932
3932
3931
3930
3931
3929
3933
3932
3932
3933
3931
3933
3933
3931
3931
3931
3931
3933
3932
3931
3933
3933
3933
3932
3931
3930
3932
3930
3933
3931
3933
3932
3931
3933
3933
3933
3933
3932
3932
3933
3932
3931
3932
3931
3931
3933
3931
3934
3931
3930
3932
3932
3929
3931
3929
3931
3930
3931
3936
3930
3931
3932
3932
3931
3930
3932
3930
3931
3931
3929
3932
3932
3930
3931
3932
3929
3931
3934
3931
3929
3932
3932
3932
3931
3931
3931
3932
3932
3929
3933
3933
3931
3932
3930
3932
3933
3931
3931
3931
3933
3933
3931
3935
3933
3932
3927
3931
3931
3931
3931
3932
3932
3932
3931
3929
3932
3932
3930
3932
3930
3933
3931
3929
3931
3930
3931
3931
3932
3929
3931
3932
3929
3931
3930
3932
3930
3932
3931
3932
3931
3931
3933
3932
3931
3930
3932
3932
3931
3932
3933
3933
3931
3935
3932
3932
3936
3931
3931
3930
3931
3934
3933
3931
3930
3931
3930
3931
3932
3933
3934
3932
3932
3930
3933
3931
3931
3931
3933
3932
3935
3932
3930
3930
3931
3932
3932
3931
3932
3932
3933
3931
3933
3932
3931
3935
3935
3931
3932
3933
3933
3934
3933
3934
3934
3932
3932
3931
3930
3934
3931
3934
3932
3932
3933
3930
3934
3932
3931
3932
3930
3931
3932
3932
3932
3931
3932
3931
3930
3932
3931
3932
3931
3930
3932
3930
3932
3932
3929
3931
3931
3930
3933
3931
3931
3932
3931
3932
3929
3932
3935
3932
3938
3933
3932
3930
3930
3931
3933
3931
3930
3932
3930
3932
3931
3932
3932
3932
3930
3931
3934
3930
3931
3934
3931
3931
3933
3932
3932
3933
3932
3934
3931
3933
3932
3931
3932
3932
3933
3931
3932
3931
3929
3933
3931
3935
3935
3935
3935
3930
3931
3933
3932
3930
3931
3932
3932
3931
3931
3933
3932
3931
3933
3931
3931
3931
3930
3932
3931
3930
3933
3933
3932
3931
3932
3934
3933
3933
3932
3931
3932
3932
3931
3934
3933
3932
3931
3931
3929
3931
3934
3932
3931
3931
3934
3932
3931
3932
3929
3929
3932
3930
3931
3932
3931
3932
3931
3930
3932
3931
3931
3932
3931
3931
3934
3932
3930
3931
3931
3932
3931
3931
3932
3933
3931
3933
3932
3929
3932
3930
3931
3933
3933
3932
3932
3931
3931
3931
3932
3928
3934
3936
3933
3931
3934
3934
3930
3933
3930
3930
3932
3931
3931
3932
3930
3931
3930
3932
3931
3931
3932
3932
3929
3932
3932
3930
3931
3932
3932
3931
3929
3931
3931
3931
3932
3932
3933
3929
3929
3930
3931
3931
3929
3932
3931
3931
3931
3934
3930
3933
3931
3928
3935
3931
3929
3931
3936
3930
3931
3931
3932
3932
3931
3933
3932
3930
3931
3931
3932
3932
3930
3932
3931
3932
3931
3933
3932
3931
3934
3931
3932
3932
3930
3931
3929
3931
3931
3930
3931
3931
3930
3932
3933
3933
3932
3932
3933
3932
3934
3932
3929
3930
3934
3929
3932
3933
3933
3931
3929
3932
3931
3932
3931
3933
3932
3930
3932
3932
3933
3932
3929
3933
3931
3931
3932
3931
3933
3931
3931
3933
3931
3931
3932
3931
3929
3932
3933
3932
3931
3931
3931
3931
3933
3931
3930
3932
3929
3934
3931
3929
3932
3929
3931
3929
3931
3930
3934
3934
3930
3932
3932
3931
3932
3931
3933
3931
3932
3932
3932
3931
3932
3932
3930
3931
3932
3931
3930
3931
3931
3930
3932
3932
3933
3931
3933
3931
3932
3931
3930
3933
3931
3932
3931
3928
3931
3934
3930
3928
3933
3929
3932
3931
3931
3929
3930
3930
3932
3931
3931
3933
3931
3931
3932
3933
3931
3930
3930
3931
3930
3934
3931
3930
3930
3930
3930
3930
3932
3932
3929
3932
3931
3932
3932
3931
3935
3933
3933
3932
3930
3933
3932
3931
3933
3933
3932
3933
3932
3933
3936
3932
3932
3931
3934
3933
3931
3933
3933
3934
3931
3931
3932
3933
3931
3933
3931
3931
3932
3932
3932
3932
3933
3932
3932
3930
3931
3932
3929
3932
3931
3932
3932
3932
3934
3931
3931
3934
3932
3930
3931
3931
3930
3934
3934
3932
3933
3932
3942
3931
3932
3932
3931
3931
3930
3931
3935
3931
3932
3930
3930
3932
3932
3932
3932
3932
3932
3933
3932
3932
3933
3931
3934
3932
3932
3931
3932
3931
3932
3933
3931
3929
3930
3931
3932
3932
3930
3931
3932
3932
3932
3934
3933
3933
3931
3932
3933
3929
3934
3932
3932
3931
3931
3930
3932
3932
3930
3931
3931
3930
3931
3931
3929
3931
3931
3929
3930
3933
3933
3931
3929
3931
3931
3931
3933
3932
3932
3930
3931
3934
3931
3931
3932
3932
3931
3932
3931
3929
3932
3934
3933
3929
3934
3924
3933
3933
3930
3931
3931
3930
3932
3930
3930
3933
3928
3931
3934
3933
3930
3934
3933
3933
3933
3930
3930
3932
3930
3930
3929
3930
3932
3931
3928
3932
3931
3933
3931
3933
3931
3931
3932
3929
3930
3932
3928
3933
3931
3929
3931
3933
3930
3934
3932
3932
3930
3932
3933
3932
3931
3933
3932
3931
3933
3931
3932
3930
3931
3932
3931
3931
3931
3930
3933
3932
3931
3932
3932
3932
3931
3931
3934
3932
3931
3931
3932
3932
3930
3931
3931
3930
3932
3933
3933
3930
3931
3932
3931
3934
3930
3931
3931
3930
3926
3931
3930
3931
3934
3930
3932
3932
3931
3931
3931
3932
3932
3930
3933
3931
3932
3934
3930
3932
3930
3932
3932
3929
3931
3931
3930
3931
3932
3932
3931
3931
3932
3931
3931
3933
3931
3932
3931
3932
3931
3931
3933
3931
3931
3933
3935
3931
3933
3933
3930
3934
3933
3931
3931
3932
3931
3931
3933
3932
3929
3933
3934
3932
3930
3930
3931
3933
3933
3932
3930
3931
3931
3931
3934
3931
3933
3932
3932
3932
3932
3932
3933
3931
3931
3931
3931
3932
3932
3931
3932
3927
3926
3935
3930
3931
3932
3934
3932
3930
3933
3933
3933
3932
3930
3932
3931
3932
3932
3930
3931
3931
3930
3933
3932
3931
3931
3932
3931
3933
3931
3930
3931
3932
3931
3932
3932
3932
3930
3931
3932
3934
3932
3931
3932
3933
3934
3932
3928
3933
3933
3931
3932
3933
3932
3930
3932
3933
3935
3932
3932
3933
3932
3930
3931
3930
3931
3930
3931
3930
3934
3933
3932
3930
3930
3932
3930
3930
3930
3934
3931
3932
3932
3930
3932
3932
3930
3932
3932
3931
3933
3932
3933
3932
3930
3932
3929
3934
3928
3931
3931
3931
3933
3932
3930
3930
3932
3933
3932
3930
3931
3932
3932
3931
3931
3931
3933
3930
3934
3930
3930
3934
3931
3930
3931
3930
3932
3932
3929
3932
3932
3930
3931
3933
3933
3931
3930
3931
3932
3932
3931
3932
3933
3931
3934
3930
3930
3928
3931
3931
3932
3930
3931
3932
3932
3931
3931
3931
3932
3931
3930
3932
3934
3933
3931
3930
3934
3933
3932
3932
3932
3932
3932
3930
3933
3932
3933
3932
3931
3934
3932
3931
3931
3932
3931
3932
3931
3931
3931
3933
3929
3932
3933
3931
3929
3929
3932
3930
3934
3932
3930
3931
3932
3933
3930
3931
3931
3930
3930
3932
3931
3930
3929
3932
3931
3932
3931
3931
3932
3932
3930
3932
3932
3932
3932
3933
3931
3932
3930
3934
3932
3933
3930
3931
3933
3933
3932
3934
3932
3932
3931
3934
3932
3933
3933
3930
3932
3933
3931
3933
3931
3931
3930
3930
3931
3931
3932
3931
3930
3931
3931
3933
3931
3932
3930
3930
3931
3931
3928
3931
3932
3931
3932
3930
3930
3930
3931
3932
3932
3932
3933
3931
3930
3933
3933
3932
3930
3926
3930
3929
3929
3928
3930
3933
3931
3933
3932
3930
3934
3931
3932
3930
3931
3932
3934
3934
3931
3932
3932
3931
3934
3931
3933
3932
3932
3931
3932
3933
3934
3933
3931
3930
3930
3933
3932
3930
3931
3931
3931
3932
3930
3930
3931
3932
3932
3929
3932
3932
3930
3933
3932
3930
3930
3929
3936
3931
3933
3932
3933
3931
3932
3933
3933
3931
3931
3930
3930
3933
3931
3930
3933
3932
3930
3930
3931
3932
3930
3933
3930
3929
3930
3932
3930
3930
3932
3931
3929
3931
3931
3932
3931
3931
3931
3932
3932
3932
3931
3932
3931
3933
3930
3934
3931
3931
3932
3932
3931
3934
3930
3929
3934
3934
3933
3932
3932
3933
3932
3932
3930
3930
3931
3931
3931
3933
3931
3929
3931
3932
3933
3933
3931
3933
3934
3932
3931
3931
3932
3931
3931
3930
3931
3931
3932
3931
3932
3933
3931
3933
3932
3934
3933
3931
3933
3933
3932
3930
3931
3935
3934
3934
3934
3931
3931
3931
3933
3931
3933
3931
3931
3932
3931
3931
3932
3932
3931
3932
3930
3932
3932
3931
3932
3932
3930
3931
3933
3933
3932
3929
3931
3931
3931
3932
3926
3928
3931
3934
3930
3933
3933
3931
3931
3932
3932
3931
3933
3931
3932
3932
3932
3930
3931
3932
3932
3932
3932
3932
3930
3933
3932
3931
3932
3930
3932
3933
3933
3932
3930
3930
3931
3933
3932
3933
3932
3931
3932
3933
3933
3932
3931
3933
3930
3928
3931
3930
3932
3930
3932
3932
3929
3932
3930
3933
3932
3932
3932
3933
3930
3932
3931
3932
3930
3933
3932
3930
3931
3932
3933
3932
3930
3932
3931
3932
3931
3930
3933
3933
3932
3931
3931
3934
3931
3930
3933
3932
3934
3932
3931
3933
3934
3934
3932
3930
3932
3930
3929
3933
3933
3932
3932
3931
3933
3932
3932
3932
3932
3930
3930
3930
3932
3932
3934
3932
3933
3933
3931
3932
3931
3931
3932
3930
3932
3931
3933
3931
3931
3933
3932
3931
3932
3931
3932
3933
3931
3930
3929
3930
3932
3933
3932
3933
3931
3934
3933
3931
3931
3931
3931
3931
3931
3931
3933
3933
3931
3931
3932
3933
3932
3933
3931
3932
3932
3934
3930
3933
3932
3931
3932
3932
3933
3930
3934
3931
3931
3931
3932
3930
3934
3932
3930
3930
3931
3933
3931
3933
3932
3932
3932
3933
3928
3931
3931
3931
3932
3933
3930
3932
3930
3931
3932
3930
3931
3930
3932
3932
3929
3932
3932
3930
3932
3932
3930
3932
3932
3930
3931
3932
3931
3932
3932
3932
3932
3932
3930
3932
3930
3932
3933
3934
3931
3931
3931
3930
3932
3929
3931
3932
3931
3931
3930
3930
3932
3932
3933
3930
3932
3932
3930
3931
3934
3930
3931
3931
3932
3930
3934
3932
3931
3931
3931
3931
3931
3931
3932
3929
3933
3932
3934
3932
3932
3931
3931
3931
3931
3930
3933
3933
3931
3930
3934
3931
3931
3933
3934
3930
3932
3930
3933
3931
3929
3930
3931
3932
3932
3933
3932
3929
3932
3931
3931
3930
3931
3932
3930
3932
3933
3933
3929
3931
3934
3931
3930
3932
3931
3932
3929
3929
3930
3931
3929
3933
3932
3934
3933
3933
3932
3930
3933
3931
3931
3930
3929
3930
3931
3935
3933
3932
3932
3931
3931
3931
3930
3932
3930
3932
3930
3931
3932
3934
3934
3929
3933
3932
3933
3930
3931
3932
3933
3932
3932
3931
3932
3933
3932
3932
3931
3933
3932
3931
3932
3932
3934
3932
3930
3934
3934
3931
3933
3933
3929
3932
3932
3930
3929
3934
3931
3931
3929
3930
3932
3932
3931
3930
3931
3931
3932
3932
3932
3930
3932
3934
3931
3930
3931
3932
3932
3930
3932
3931
3932
3931
3929
3931
3933
3933
3931
3931
3932
3934
3932
3929
3931
3932
3930
3935
3932
3936
3935
3929
3928
3931
3924
3929
3931
3930
3934
3932
3932
3933
3931
3930
3931
3930
3932
3931
3931
3933
3931
3931
3932
3932
3930
3932
3931
3931
3931
3931
3931
3931
3931
3932
3931
3934
3931
3933
3933
3932
3931
3929
3933
3932
3930
3931
3930
3932
3928
3931
3932
3932
3931
3931
3929
3932
3932
3931
3931
3931
3931
3932
3930
3931
3934
3930
3930
3932
3931
3932
3931
3929
3932
3931
3933
3932
3930
3932
3932
3931
3931
3931
3930
3930
3932
3931
3932
3930
3933
3932
3932
3933
3932
3932
3932
3931
3930
3932
3936
3933
3928
3931
3931
3930
3931
3932
3930
3934
3931
3931
3932
3931
3932
3931
3931
3933
3931
3931
3932
3931
3929
3932
3933
3931
3931
3933
3929
3932
3932
3932
3932
3932
3933
3929
3930
3932
3932
3930
3930
3933
3932
3931
3932
3929
3931
3929
3932
3927
3930
3932
3930
3931
3930
3931
3931
3930
3932
3931
3932
3931
3933
3931
3931
3931
3932
3929
3931
3931
3930
3934
3931
3932
3930
3933
3932
3930
3934
3931
3930
3929
3930
3931
3931
3932
3931
3930
3932
3930
3932
3931
3932
3932
3930
3933
3938
3931
3933
3932
3932
3932
3929
3932
3931
3933
3932
3930
3932
3932
3932
3933
3930
3933
3933
3932
3932
3930
3932
3932
3930
3931
3932
3931
3931
3930
3930
3931
3931
3930
3933
3931
3933
3931
3930
3932
3932
3932
3933
3929
3934
3930
3931
3934
3934
3935
3932
3931
3932
3931
3933
3934
3931
3930
3931
3932
3932
3931
3933
3932
3934
3934
3931
3932
3931
3931
3932
3930
3934
3930
3934
3931
3932
3933
3930
3931
3932
3933
3932
3932
3930
3930
3929
3930
3933
3930
3930
3932
3932
3930
3931
3935
3931
3929
3927
3930
3931
3931
3933
3933
3933
3931
3932
3930
3932
3930
3930
3932
3931
3934
3931
3931
3934
3932
3930
3931
3931
3930
3933
3933
3932
3932
3930
3934
3933
3931
3932
3932
3931
3931
3931
3933
3930
3930
3932
3932
3933
3934
3934
3938
3929
3935
3929
3931
3930
3931
3932
3930
3930
3929
3932
3931
3930
3933
3931
3932
3931
3933
3932
3931
3933
3934
3932
3930
3931
3932
3932
3933
3931
3929
3931
3932
3934
3931
3931
3932
3932
3931
3933
3932
3932
3932
3931
3932
3930
3934
3932
3932
3930
3933
3930
3932
3932
3932
3931
3931
3930
3932
3932
3930
3931
3933
3932
3933
3933
3929
3930
3931
3933
3930
3929
3931
3929
3931
3929
3930
3930
3931
3931
3932
3930
3932
3932
3929
3931
3931
3929
3931
3931
3929
3932
3933
3933
3934
3932
3930
3931
3932
3937
3934
3932
3930
3931
3932
3933
3930
3933
3932
3932
3932
3929
3930
3931
3931
3930
3930
3934
3930
3932
3929
3932
3931
3932
3930
3929
3929
3929
3929
3934
3931
3929
3930
3930
3930
3934
3930
3933
3932
3932
3932
3930
3929
3935
3930
3931
3932
3925
3933
3931
3930
3931
3933
3933
3931
3932
3934
3933
3933
3934
3930
3932
3931
3930
3932
3934
3931
3930
3932
3930
3928
3930
3931
3932
3932
3930
3932
3930
3931
3931
3931
3929
3931
3932
3930
3932
3932
3930
3931
3931
3931
3931
3931
3929
3933
3939
3932
3930
3932
3931
3930
3930
3931
3930
3932
3930
3931
3931
3930
3932
3929
3932
3930
3932
3932
3932
3930
3931
3933
3931
3930
3935
3930
3931
3932
3930
3931
3930
3930
3929
3929
3931
3932
3932
3934
3929
3931
3929
3932
3932
3927
3931
3933
3932
3938
3930
3932
3931
3932
3931
3930
3932
3933
3932
3930
3931
3930
3934
3933
3933
3929
3930
3933
3930
3930
3932
3933
3931
3933
3930
3929
3931
3933
3929
3931
3934
3933
3930
3934
3931
3933
3933
3929
3933
3932
3930
3930
3932
3929
3932
3931
3933
3932
3931
3931